2023 HCMC HMFD outbreak
…
a |> arrange(coll_time, age)

# A tibble: 2,048 × 5
      age coll_time       fit       lwr       upr
    <dbl>     <dbl> <dbl[1d]> <dbl[1d]> <dbl[1d]>
 1 0         19349.    0.0762    0.0448    0.127 
 2 0.0294    19349.    0.0611    0.0351    0.104 
 3 0.0587    19349.    0.0427    0.0201    0.0881
 4 0.0881    19349.    0.0642    0.0341    0.117 
 5 0.117     19349.    0.0490    0.0210    0.110 
 6 0.147     19349.    0.0510    0.0278    0.0919
 7 0.176     19349.    0.0494    0.0209    0.112 
 8 0.205     19349.    0.0859    0.0541    0.134 
 9 0.235     19349.    0.0494    0.0209    0.112 
10 0.264     19349.    0.0411    0.0208    0.0795
# ℹ 2,038 more rows
…
