HFMD data description
…
Now we check again among cases has delay > 1 year has check variable = TRUE

df_cases |>
  mutate(delay = reported_date - admission_date) |>
  filter(delay > 365) |>
  mutate(
    reported_date2 = update(reported_date, year = year(admission_date)),
    delay2 = reported_date2 - admission_date
  ) |>
  select(reported_date,admission_date,onset_date,delay,reported_date2,delay2) |>
  mutate(check = year(admission_date) == year(onset_date)) |> 
  filter(check == TRUE)

# A tibble: 1,249 × 7
   reported_date admission_date onset_date delay    reported_date2 delay2  check
   <date>        <date>         <date>     <drtn>   <date>         <drtn>  <lgl>
 1 2018-03-09    2017-02-18     2017-02-17 384 days 2017-03-09     19 days TRUE 
 2 2018-03-09    2017-02-19     2017-02-14 383 days 2017-03-09     18 days TRUE 
 3 2018-03-09    2017-01-19     2017-01-19 414 days 2017-03-09     49 days TRUE 
 4 2018-03-09    2017-02-09     2017-02-05 393 days 2017-03-09     28 days TRUE 
 5 2018-03-09    2017-02-05     2017-02-02 397 days 2017-03-09     32 days TRUE 
 6 2018-03-09    2017-02-10     2017-02-07 392 days 2017-03-09     27 days TRUE 
 7 2018-03-09    2017-02-03     2017-01-31 399 days 2017-03-09     34 days TRUE 
 8 2018-03-09    2017-02-13     2017-02-13 389 days 2017-03-09     24 days TRUE 
 9 2018-03-09    2017-02-22     2017-02-21 380 days 2017-03-09     15 days TRUE 
10 2018-03-09    2017-02-03     2017-02-02 399 days 2017-03-09     34 days TRUE 
# ℹ 1,239 more rows
…
